{
	"id": "57f997cf-a9a6-4e4f-b028-d3c12ace9eb8",
	"name": "ifabula CMS",
	"values": [
		{
			"key": "HTTP",
			"value": "http",
			"type": "default",
			"enabled": true
		},
		{
			"key": "HOST",
			"value": "localhost",
			"type": "default",
			"enabled": true
		},
		{
			"key": "PORT",
			"value": "8000",
			"type": "default",
			"enabled": true
		},
		{
			"key": "API-TOKEN",
			"value": "",
			"type": "default",
			"enabled": true
		}
	],
	"_postman_variable_scope": "environment",
	"_postman_exported_at": "2022-12-20T03:11:35.384Z",
	"_postman_exported_using": "Postman/10.6.7"
}